%YAML 1.1
%TAG !u! tag:unity3d.com,2011:
--- !u!78 &1
TagManager:
  serializedVersion: 2
  tags:
  - Exit
  - Enemy
  - Item
  - Ground
  - Laser
  - LevelIntro
  layers:
  - Default
  - TransparentFX
  - Ignore Raycast
  - 
  - Water
  - UI
  - 
  - 
  - BlockingLayer
  - 
  - 
  - 
  - 
  - 
  - 
  - 
  - 
  - 
  - 
  - 
  - 
  - 
  - 
  - 
  - 
  - 
  - 
  - 
  - 
  - 
  - 
  - 
  m_SortingLayers:
  - name: Default
    uniqueID: 0
    locked: 0
  - name: Floor
    uniqueID: 3463257893
    locked: 0
  - name: Items
    uniqueID: 3357901133
    locked: 0
  - name: Units
    uniqueID: 3711569553
    locked: 0
